{
    "name": "Rename standard components to include their sizes, as well as to put them in sorted order by size.",
    "description": "Sized components such as Fuel Storage and Engineering spaces are sorted alphabetically in the component list instead of by size. This makes finding the size you want just a little bit more difficult than it ought to be. This mod puts them into order.",
    "status": "approved",
    "type": "database",
    "url": "http://aurora2.pentarch.org/index.php?topic=10889",
    "downloads": [
        {
            "version": "1.0.0",
            "target_aurora_version": "1",
            "download_url": "https://gitlab.com/db48x/aurora-component-sorter/-/archive/v1.0.0/aurora-component-sorter-v1.0.0.zip"
        },
        {
            "version": "1.1.0",
            "target_aurora_version": "1",
            "download_url": "https://gitlab.com/db48x/aurora-component-sorter/-/archive/v1.1.0/aurora-component-sorter-v1.1.0.zip"
        },
        {
            "version": "1.2.0",
            "target_aurora_version": "1",
            "download_url": "https://gitlab.com/db48x/aurora-component-sorter/-/archive/v1.2.0/aurora-component-sorter-v1.2.0.zip"
        },
        {
            "version": "1.3.0",
            "target_aurora_version": "1",
            "download_url": "https://gitlab.com/db48x/aurora-component-sorter/-/archive/v1.3.0/aurora-component-sorter-v1.3.0.zip"
        }
    ]
}
